^C:\USERS\DR.KIM\DOCUMENTS\VISUAL STUDIO 2013\PROJECTS\비프 프로잭트\GAME\GAME.RC
/D _DEBUG /D _UNICODE /D UNICODE /l"0x0412" /IDebug\ /nologo /fo"DEBUG\GAME.RES" GAME.RC /D _DEBUG /D _UNICODE /D UNICODE /l"0x0412" /IDebug\ /nologo /fo"DEBUG\GAME.RES" C:\USERS\DR.KIM\DOCUMENTS\VISUAL STUDIO 2013\PROJECTS\비프 프로잭트\GAME\GAME.RC
^C:\USERS\CHO\DESKTOP\비프 프로잭트\GAME\GAME.RC
/D _DEBUG /D _UNICODE /D UNICODE /l"0x0412" /IDebug\ /nologo /fo"DEBUG\GAME.RES" GAME.RC /D _DEBUG /D _UNICODE /D UNICODE /l"0x0412" /IDebug\ /nologo /fo"DEBUG\GAME.RES" C:\USERS\CHO\DESKTOP\비프 프로잭트\GAME\GAME.RC
^C:\USERS\DR.KIM\DESKTOP\2학기\비쥬얼 프로그래밍\프로잭트\07.통합\비프 프로잭트 (2)\GAME\GAME.RC
/D _DEBUG /D _UNICODE /D UNICODE /l"0x0412" /IDebug\ /nologo /fo"DEBUG\GAME.RES" GAME.RC /D _DEBUG /D _UNICODE /D UNICODE /l"0x0412" /IDebug\ /nologo /fo"DEBUG\GAME.RES" C:\USERS\DR.KIM\DESKTOP\2학기\비쥬얼 프로그래밍\프로잭트\07.통합\비프 프로잭트 (2)\GAME\GAME.RC
^C:\USERS\CHO\DESKTOP\비프 프로잭트 (2)\GAME\GAME.RC
/D _DEBUG /D _UNICODE /D UNICODE /l"0x0412" /IDebug\ /nologo /fo"DEBUG\GAME.RES" GAME.RC /D _DEBUG /D _UNICODE /D UNICODE /l"0x0412" /IDebug\ /nologo /fo"DEBUG\GAME.RES" C:\USERS\CHO\DESKTOP\비프 프로잭트 (2)\GAME\GAME.RC
^C:\USERS\USER\DOWNLOADS\GGG\GAME\GAME.RC
/D _DEBUG /D _UNICODE /D UNICODE /l"0x0412" /IDebug\ /nologo /fo"DEBUG\GAME.RES" GAME.RC /D _DEBUG /D _UNICODE /D UNICODE /l"0x0412" /IDebug\ /nologo /fo"DEBUG\GAME.RES" C:\USERS\USER\DOWNLOADS\GGG\GAME\GAME.RC
^C:\USERS\USER\DESKTOP\GGG\GAME\GAME.RC
/D _DEBUG /D _UNICODE /D UNICODE /l"0x0412" /IDebug\ /nologo /fo"DEBUG\GAME.RES" GAME.RC /D _DEBUG /D _UNICODE /D UNICODE /l"0x0412" /IDebug\ /nologo /fo"DEBUG\GAME.RES" C:\USERS\USER\DESKTOP\GGG\GAME\GAME.RC
